temp_MIPS.sim/sim_1/behav/xsim/simulate.log
Vivado Simulator 2018.2
Time resolution is 1 ps
Time=0:
 Instr: 20080005
 Registers:
 00000000 00000000 00000000 00000000 00000000 00000000 00000000 00000000
 00000000 00000000 00000000 00000000 00000000 00000000 00000000 00000000
 00000000 00000000 00000000 00000000 00000000 00000000 00000000 00000000
 00000000 00000000 00000000 00000000 00000000 00000000 00000000 00000000
 Data:
 00000000 00000000 00000000 00000000 00000000 00000000 00000000 00000000
 00000000 00000000 00000000 00000000 00000000 00000000 00000000 00000000
 hi: 00000000, lo: 00000000
Time=10000:
 Instr: 20090001
 Registers:
 00000000 00000000 00000000 00000000 00000000 00000000 00000000 00000000
 00000005 00000000 00000000 00000000 00000000 00000000 00000000 00000000
 00000000 00000000 00000000 00000000 00000000 00000000 00000000 00000000
 00000000 00000000 00000000 00000000 00000000 00000000 00000000 00000000
 Data:
 00000000 00000000 00000000 00000000 00000000 00000000 00000000 00000000
 00000000 00000000 00000000 00000000 00000000 00000000 00000000 00000000
 hi: 00000000, lo: 00000000
Time=30000:
 Instr: 01094022
 Registers:
 00000000 00000000 00000000 00000000 00000000 00000000 00000000 00000000
 00000005 00000001 00000000 00000000 00000000 00000000 00000000 00000000
 00000000 00000000 00000000 00000000 00000000 00000000 00000000 00000000
 00000000 00000000 00000000 00000000 00000000 00000000 00000000 00000000
 Data:
 00000000 00000000 00000000 00000000 00000000 00000000 00000000 00000000
 00000000 00000000 00000000 00000000 00000000 00000000 00000000 00000000
 hi: 00000000, lo: 00000000
Time=50000:
 Instr: 01485020
 Registers:
 00000000 00000000 00000000 00000000 00000000 00000000 00000000 00000000
 00000004 00000001 00000000 00000000 00000000 00000000 00000000 00000000
 00000000 00000000 00000000 00000000 00000000 00000000 00000000 00000000
 00000000 00000000 00000000 00000000 00000000 00000000 00000000 00000000
 Data:
 00000000 00000000 00000000 00000000 00000000 00000000 00000000 00000000
 00000000 00000000 00000000 00000000 00000000 00000000 00000000 00000000
 hi: 00000000, lo: 00000000
Time=70000:
 Instr: 0109582a
 Registers:
 00000000 00000000 00000000 00000000 00000000 00000000 00000000 00000000
 00000004 00000001 00000004 00000000 00000000 00000000 00000000 00000000
 00000000 00000000 00000000 00000000 00000000 00000000 00000000 00000000
 00000000 00000000 00000000 00000000 00000000 00000000 00000000 00000000
 Data:
 00000000 00000000 00000000 00000000 00000000 00000000 00000000 00000000
 00000000 00000000 00000000 00000000 00000000 00000000 00000000 00000000
 hi: 00000000, lo: 00000000
Time=90000:
 Instr: 15600001
 Registers:
 00000000 00000000 00000000 00000000 00000000 00000000 00000000 00000000
 00000004 00000001 00000004 00000000 00000000 00000000 00000000 00000000
 00000000 00000000 00000000 00000000 00000000 00000000 00000000 00000000
 00000000 00000000 00000000 00000000 00000000 00000000 00000000 00000000
 Data:
 00000000 00000000 00000000 00000000 00000000 00000000 00000000 00000000
 00000000 00000000 00000000 00000000 00000000 00000000 00000000 00000000
 hi: 00000000, lo: 00000000
Time=110000:
 Instr: 08000002
 Registers:
 00000000 00000000 00000000 00000000 00000000 00000000 00000000 00000000
 00000004 00000001 00000004 00000000 00000000 00000000 00000000 00000000
 00000000 00000000 00000000 00000000 00000000 00000000 00000000 00000000
 00000000 00000000 00000000 00000000 00000000 00000000 00000000 00000000
 Data:
 00000000 00000000 00000000 00000000 00000000 00000000 00000000 00000000
 00000000 00000000 00000000 00000000 00000000 00000000 00000000 00000000
 hi: 00000000, lo: 00000000
Time=130000:
 Instr: 01094022
 Registers:
 00000000 00000000 00000000 00000000 00000000 00000000 00000000 00000000
 00000004 00000001 00000004 00000000 00000000 00000000 00000000 00000000
 00000000 00000000 00000000 00000000 00000000 00000000 00000000 00000000
 00000000 00000000 00000000 00000000 00000000 00000000 00000000 00000000
 Data:
 00000000 00000000 00000000 00000000 00000000 00000000 00000000 00000000
 00000000 00000000 00000000 00000000 00000000 00000000 00000000 00000000
 hi: 00000000, lo: 00000000
Time=150000:
 Instr: 01485020
 Registers:
 00000000 00000000 00000000 00000000 00000000 00000000 00000000 00000000
 00000003 00000001 00000004 00000000 00000000 00000000 00000000 00000000
 00000000 00000000 00000000 00000000 00000000 00000000 00000000 00000000
 00000000 00000000 00000000 00000000 00000000 00000000 00000000 00000000
 Data:
 00000000 00000000 00000000 00000000 00000000 00000000 00000000 00000000
 00000000 00000000 00000000 00000000 00000000 00000000 00000000 00000000
 hi: 00000000, lo: 00000000
Time=170000:
 Instr: 0109582a
 Registers:
 00000000 00000000 00000000 00000000 00000000 00000000 00000000 00000000
 00000003 00000001 00000007 00000000 00000000 00000000 00000000 00000000
 00000000 00000000 00000000 00000000 00000000 00000000 00000000 00000000
 00000000 00000000 00000000 00000000 00000000 00000000 00000000 00000000
 Data:
 00000000 00000000 00000000 00000000 00000000 00000000 00000000 00000000
 00000000 00000000 00000000 00000000 00000000 00000000 00000000 00000000
 hi: 00000000, lo: 00000000
Time=190000:
 Instr: 15600001
 Registers:
 00000000 00000000 00000000 00000000 00000000 00000000 00000000 00000000
 00000003 00000001 00000007 00000000 00000000 00000000 00000000 00000000
 00000000 00000000 00000000 00000000 00000000 00000000 00000000 00000000
 00000000 00000000 00000000 00000000 00000000 00000000 00000000 00000000
 Data:
 00000000 00000000 00000000 00000000 00000000 00000000 00000000 00000000
 00000000 00000000 00000000 00000000 00000000 00000000 00000000 00000000
 hi: 00000000, lo: 00000000
Time=210000:
 Instr: 08000002
 Registers:
 00000000 00000000 00000000 00000000 00000000 00000000 00000000 00000000
 00000003 00000001 00000007 00000000 00000000 00000000 00000000 00000000
 00000000 00000000 00000000 00000000 00000000 00000000 00000000 00000000
 00000000 00000000 00000000 00000000 00000000 00000000 00000000 00000000
 Data:
 00000000 00000000 00000000 00000000 00000000 00000000 00000000 00000000
 00000000 00000000 00000000 00000000 00000000 00000000 00000000 00000000
 hi: 00000000, lo: 00000000
Time=230000:
 Instr: 01094022
 Registers:
 00000000 00000000 00000000 00000000 00000000 00000000 00000000 00000000
 00000003 00000001 00000007 00000000 00000000 00000000 00000000 00000000
 00000000 00000000 00000000 00000000 00000000 00000000 00000000 00000000
 00000000 00000000 00000000 00000000 00000000 00000000 00000000 00000000
 Data:
 00000000 00000000 00000000 00000000 00000000 00000000 00000000 00000000
 00000000 00000000 00000000 00000000 00000000 00000000 00000000 00000000
 hi: 00000000, lo: 00000000
Time=250000:
 Instr: 01485020
 Registers:
 00000000 00000000 00000000 00000000 00000000 00000000 00000000 00000000
 00000002 00000001 00000007 00000000 00000000 00000000 00000000 00000000
 00000000 00000000 00000000 00000000 00000000 00000000 00000000 00000000
 00000000 00000000 00000000 00000000 00000000 00000000 00000000 00000000
 Data:
 00000000 00000000 00000000 00000000 00000000 00000000 00000000 00000000
 00000000 00000000 00000000 00000000 00000000 00000000 00000000 00000000
 hi: 00000000, lo: 00000000
Time=270000:
 Instr: 0109582a
 Registers:
 00000000 00000000 00000000 00000000 00000000 00000000 00000000 00000000
 00000002 00000001 00000009 00000000 00000000 00000000 00000000 00000000
 00000000 00000000 00000000 00000000 00000000 00000000 00000000 00000000
 00000000 00000000 00000000 00000000 00000000 00000000 00000000 00000000
 Data:
 00000000 00000000 00000000 00000000 00000000 00000000 00000000 00000000
 00000000 00000000 00000000 00000000 00000000 00000000 00000000 00000000
 hi: 00000000, lo: 00000000
Time=290000:
 Instr: 15600001
 Registers:
 00000000 00000000 00000000 00000000 00000000 00000000 00000000 00000000
 00000002 00000001 00000009 00000000 00000000 00000000 00000000 00000000
 00000000 00000000 00000000 00000000 00000000 00000000 00000000 00000000
 00000000 00000000 00000000 00000000 00000000 00000000 00000000 00000000
 Data:
 00000000 00000000 00000000 00000000 00000000 00000000 00000000 00000000
 00000000 00000000 00000000 00000000 00000000 00000000 00000000 00000000
 hi: 00000000, lo: 00000000
Time=310000:
 Instr: 08000002
 Registers:
 00000000 00000000 00000000 00000000 00000000 00000000 00000000 00000000
 00000002 00000001 00000009 00000000 00000000 00000000 00000000 00000000
 00000000 00000000 00000000 00000000 00000000 00000000 00000000 00000000
 00000000 00000000 00000000 00000000 00000000 00000000 00000000 00000000
 Data:
 00000000 00000000 00000000 00000000 00000000 00000000 00000000 00000000
 00000000 00000000 00000000 00000000 00000000 00000000 00000000 00000000
 hi: 00000000, lo: 00000000
Time=330000:
 Instr: 01094022
 Registers:
 00000000 00000000 00000000 00000000 00000000 00000000 00000000 00000000
 00000002 00000001 00000009 00000000 00000000 00000000 00000000 00000000
 00000000 00000000 00000000 00000000 00000000 00000000 00000000 00000000
 00000000 00000000 00000000 00000000 00000000 00000000 00000000 00000000
 Data:
 00000000 00000000 00000000 00000000 00000000 00000000 00000000 00000000
 00000000 00000000 00000000 00000000 00000000 00000000 00000000 00000000
 hi: 00000000, lo: 00000000
Time=350000:
 Instr: 01485020
 Registers:
 00000000 00000000 00000000 00000000 00000000 00000000 00000000 00000000
 00000001 00000001 00000009 00000000 00000000 00000000 00000000 00000000
 00000000 00000000 00000000 00000000 00000000 00000000 00000000 00000000
 00000000 00000000 00000000 00000000 00000000 00000000 00000000 00000000
 Data:
 00000000 00000000 00000000 00000000 00000000 00000000 00000000 00000000
 00000000 00000000 00000000 00000000 00000000 00000000 00000000 00000000
 hi: 00000000, lo: 00000000
Time=370000:
 Instr: 0109582a
 Registers:
 00000000 00000000 00000000 00000000 00000000 00000000 00000000 00000000
 00000001 00000001 0000000a 00000000 00000000 00000000 00000000 00000000
 00000000 00000000 00000000 00000000 00000000 00000000 00000000 00000000
 00000000 00000000 00000000 00000000 00000000 00000000 00000000 00000000
 Data:
 00000000 00000000 00000000 00000000 00000000 00000000 00000000 00000000
 00000000 00000000 00000000 00000000 00000000 00000000 00000000 00000000
 hi: 00000000, lo: 00000000
Time=390000:
 Instr: 15600001
 Registers:
 00000000 00000000 00000000 00000000 00000000 00000000 00000000 00000000
 00000001 00000001 0000000a 00000000 00000000 00000000 00000000 00000000
 00000000 00000000 00000000 00000000 00000000 00000000 00000000 00000000
 00000000 00000000 00000000 00000000 00000000 00000000 00000000 00000000
 Data:
 00000000 00000000 00000000 00000000 00000000 00000000 00000000 00000000
 00000000 00000000 00000000 00000000 00000000 00000000 00000000 00000000
 hi: 00000000, lo: 00000000
Time=410000:
 Instr: 08000002
 Registers:
 00000000 00000000 00000000 00000000 00000000 00000000 00000000 00000000
 00000001 00000001 0000000a 00000000 00000000 00000000 00000000 00000000
 00000000 00000000 00000000 00000000 00000000 00000000 00000000 00000000
 00000000 00000000 00000000 00000000 00000000 00000000 00000000 00000000
 Data:
 00000000 00000000 00000000 00000000 00000000 00000000 00000000 00000000
 00000000 00000000 00000000 00000000 00000000 00000000 00000000 00000000
 hi: 00000000, lo: 00000000
Time=430000:
 Instr: 01094022
 Registers:
 00000000 00000000 00000000 00000000 00000000 00000000 00000000 00000000
 00000001 00000001 0000000a 00000000 00000000 00000000 00000000 00000000
 00000000 00000000 00000000 00000000 00000000 00000000 00000000 00000000
 00000000 00000000 00000000 00000000 00000000 00000000 00000000 00000000
 Data:
 00000000 00000000 00000000 00000000 00000000 00000000 00000000 00000000
 00000000 00000000 00000000 00000000 00000000 00000000 00000000 00000000
 hi: 00000000, lo: 00000000
Time=450000:
 Instr: 01485020
 Registers:
 00000000 00000000 00000000 00000000 00000000 00000000 00000000 00000000
 00000000 00000001 0000000a 00000000 00000000 00000000 00000000 00000000
 00000000 00000000 00000000 00000000 00000000 00000000 00000000 00000000
 00000000 00000000 00000000 00000000 00000000 00000000 00000000 00000000
 Data:
 00000000 00000000 00000000 00000000 00000000 00000000 00000000 00000000
 00000000 00000000 00000000 00000000 00000000 00000000 00000000 00000000
 hi: 00000000, lo: 00000000
Time=470000:
 Instr: 0109582a
 Registers:
 00000000 00000000 00000000 00000000 00000000 00000000 00000000 00000000
 00000000 00000001 0000000a 00000000 00000000 00000000 00000000 00000000
 00000000 00000000 00000000 00000000 00000000 00000000 00000000 00000000
 00000000 00000000 00000000 00000000 00000000 00000000 00000000 00000000
 Data:
 00000000 00000000 00000000 00000000 00000000 00000000 00000000 00000000
 00000000 00000000 00000000 00000000 00000000 00000000 00000000 00000000
 hi: 00000000, lo: 00000000
Time=490000:
 Instr: 15600001
 Registers:
 00000000 00000000 00000000 00000000 00000000 00000000 00000000 00000000
 00000000 00000001 0000000a 00000001 00000000 00000000 00000000 00000000
 00000000 00000000 00000000 00000000 00000000 00000000 00000000 00000000
 00000000 00000000 00000000 00000000 00000000 00000000 00000000 00000000
 Data:
 00000000 00000000 00000000 00000000 00000000 00000000 00000000 00000000
 00000000 00000000 00000000 00000000 00000000 00000000 00000000 00000000
 hi: 00000000, lo: 00000000
Time=510000:
 Instr: 014b4824
 Registers:
 00000000 00000000 00000000 00000000 00000000 00000000 00000000 00000000
 00000000 00000001 0000000a 00000001 00000000 00000000 00000000 00000000
 00000000 00000000 00000000 00000000 00000000 00000000 00000000 00000000
 00000000 00000000 00000000 00000000 00000000 00000000 00000000 00000000
 Data:
 00000000 00000000 00000000 00000000 00000000 00000000 00000000 00000000
 00000000 00000000 00000000 00000000 00000000 00000000 00000000 00000000
 hi: 00000000, lo: 00000000
Time=530000:
 Instr: 01095025
 Registers:
 00000000 00000000 00000000 00000000 00000000 00000000 00000000 00000000
 00000000 00000000 0000000a 00000001 00000000 00000000 00000000 00000000
 00000000 00000000 00000000 00000000 00000000 00000000 00000000 00000000
 00000000 00000000 00000000 00000000 00000000 00000000 00000000 00000000
 Data:
 00000000 00000000 00000000 00000000 00000000 00000000 00000000 00000000
 00000000 00000000 00000000 00000000 00000000 00000000 00000000 00000000
 hi: 00000000, lo: 00000000
Time=550000:
 Instr: 3c0ecafe
 Registers:
 00000000 00000000 00000000 00000000 00000000 00000000 00000000 00000000
 00000000 00000000 00000000 00000001 00000000 00000000 00000000 00000000
 00000000 00000000 00000000 00000000 00000000 00000000 00000000 00000000
 00000000 00000000 00000000 00000000 00000000 00000000 00000000 00000000
 Data:
 00000000 00000000 00000000 00000000 00000000 00000000 00000000 00000000
 00000000 00000000 00000000 00000000 00000000 00000000 00000000 00000000
 hi: 00000000, lo: 00000000
Time=570000:
 Instr: 35ce2025
 Registers:
 00000000 00000000 00000000 00000000 00000000 00000000 00000000 00000000
 00000000 00000000 00000000 00000001 00000000 00000000 cafe0000 00000000
 00000000 00000000 00000000 00000000 00000000 00000000 00000000 00000000
 00000000 00000000 00000000 00000000 00000000 00000000 00000000 00000000
 Data:
 00000000 00000000 00000000 00000000 00000000 00000000 00000000 00000000
 00000000 00000000 00000000 00000000 00000000 00000000 00000000 00000000
 hi: 00000000, lo: 00000000
Time=590000:
 Instr: ac0e0004
 Registers:
 00000000 00000000 00000000 00000000 00000000 00000000 00000000 00000000
 00000000 00000000 00000000 00000001 00000000 00000000 cafe2025 00000000
 00000000 00000000 00000000 00000000 00000000 00000000 00000000 00000000
 00000000 00000000 00000000 00000000 00000000 00000000 00000000 00000000
 Data:
 00000000 00000000 00000000 00000000 00000000 00000000 00000000 00000000
 00000000 00000000 00000000 00000000 00000000 00000000 00000000 00000000
 hi: 00000000, lo: 00000000
Time=610000:
 Instr: 8c0c0004
 Registers:
 00000000 00000000 00000000 00000000 00000000 00000000 00000000 00000000
 00000000 00000000 00000000 00000001 00000000 00000000 cafe2025 00000000
 00000000 00000000 00000000 00000000 00000000 00000000 00000000 00000000
 00000000 00000000 00000000 00000000 00000000 00000000 00000000 00000000
 Data:
 00000000 cafe2025 00000000 00000000 00000000 00000000 00000000 00000000
 00000000 00000000 00000000 00000000 00000000 00000000 00000000 00000000
 hi: 00000000, lo: 00000000
Time=630000:
 Instr: 0109f027
 Registers:
 00000000 00000000 00000000 00000000 00000000 00000000 00000000 00000000
 00000000 00000000 00000000 00000001 cafe2025 00000000 cafe2025 00000000
 00000000 00000000 00000000 00000000 00000000 00000000 00000000 00000000
 00000000 00000000 00000000 00000000 00000000 00000000 00000000 00000000
 Data:
 00000000 cafe2025 00000000 00000000 00000000 00000000 00000000 00000000
 00000000 00000000 00000000 00000000 00000000 00000000 00000000 00000000
 hi: 00000000, lo: 00000000
Time=650000:
 Instr: 300a0003
 Registers:
 00000000 00000000 00000000 00000000 00000000 00000000 00000000 00000000
 00000000 00000000 00000000 00000001 cafe2025 00000000 cafe2025 00000000
 00000000 00000000 00000000 00000000 00000000 00000000 00000000 00000000
 00000000 00000000 00000000 00000000 00000000 00000000 ffffffff 00000000
 Data:
 00000000 cafe2025 00000000 00000000 00000000 00000000 00000000 00000000
 00000000 00000000 00000000 00000000 00000000 00000000 00000000 00000000
 hi: 00000000, lo: 00000000
Time=670000:
 Instr: 280b0004
 Registers:
 00000000 00000000 00000000 00000000 00000000 00000000 00000000 00000000
 00000000 00000000 00000000 00000001 cafe2025 00000000 cafe2025 00000000
 00000000 00000000 00000000 00000000 00000000 00000000 00000000 00000000
 00000000 00000000 00000000 00000000 00000000 00000000 ffffffff 00000000
 Data:
 00000000 cafe2025 00000000 00000000 00000000 00000000 00000000 00000000
 00000000 00000000 00000000 00000000 00000000 00000000 00000000 00000000
 hi: 00000000, lo: 00000000
Time=690000:
 Instr: 00084a00
 Registers:
 00000000 00000000 00000000 00000000 00000000 00000000 00000000 00000000
 00000000 00000000 00000000 00000001 cafe2025 00000000 cafe2025 00000000
 00000000 00000000 00000000 00000000 00000000 00000000 00000000 00000000
 00000000 00000000 00000000 00000000 00000000 00000000 ffffffff 00000000
 Data:
 00000000 cafe2025 00000000 00000000 00000000 00000000 00000000 00000000
 00000000 00000000 00000000 00000000 00000000 00000000 00000000 00000000
 hi: 00000000, lo: 00000000
Time=710000:
 Instr: 00095082
 Registers:
 00000000 00000000 00000000 00000000 00000000 00000000 00000000 00000000
 00000000 00000000 00000000 00000001 cafe2025 00000000 cafe2025 00000000
 00000000 00000000 00000000 00000000 00000000 00000000 00000000 00000000
 00000000 00000000 00000000 00000000 00000000 00000000 ffffffff 00000000
 Data:
 00000000 cafe2025 00000000 00000000 00000000 00000000 00000000 00000000
 00000000 00000000 00000000 00000000 00000000 00000000 00000000 00000000
 hi: 00000000, lo: 00000000
Time=730000:
 Instr: 010c0018
 Registers:
 00000000 00000000 00000000 00000000 00000000 00000000 00000000 00000000
 00000000 00000000 00000000 00000001 cafe2025 00000000 cafe2025 00000000
 00000000 00000000 00000000 00000000 00000000 00000000 00000000 00000000
 00000000 00000000 00000000 00000000 00000000 00000000 ffffffff 00000000
 Data:
 00000000 cafe2025 00000000 00000000 00000000 00000000 00000000 00000000
 00000000 00000000 00000000 00000000 00000000 00000000 00000000 00000000
 hi: 00000000, lo: 00000000
Time=750000:
 Instr: 00000810
 Registers:
 00000000 00000000 00000000 00000000 00000000 00000000 00000000 00000000
 00000000 00000000 00000000 00000001 cafe2025 00000000 cafe2025 00000000
 00000000 00000000 00000000 00000000 00000000 00000000 00000000 00000000
 00000000 00000000 00000000 00000000 00000000 00000000 ffffffff 00000000
 Data:
 00000000 cafe2025 00000000 00000000 00000000 00000000 00000000 00000000
 00000000 00000000 00000000 00000000 00000000 00000000 00000000 00000000
 hi: 00000000, lo: 00000000
Time=770000:
 Instr: 00001012
 Registers:
 00000000 00000000 00000000 00000000 00000000 00000000 00000000 00000000
 00000000 00000000 00000000 00000001 cafe2025 00000000 cafe2025 00000000
 00000000 00000000 00000000 00000000 00000000 00000000 00000000 00000000
 00000000 00000000 00000000 00000000 00000000 00000000 ffffffff 00000000
 Data:
 00000000 cafe2025 00000000 00000000 00000000 00000000 00000000 00000000
 00000000 00000000 00000000 00000000 00000000 00000000 00000000 00000000
 hi: 00000000, lo: 00000000
Time=790000:
 Instr: 0c000017
 Registers:
 00000000 00000000 00000000 00000000 00000000 00000000 00000000 00000000
 00000000 00000000 00000000 00000001 cafe2025 00000000 cafe2025 00000000
 00000000 00000000 00000000 00000000 00000000 00000000 00000000 00000000
 00000000 00000000 00000000 00000000 00000000 00000000 ffffffff 00000000
 Data:
 00000000 cafe2025 00000000 00000000 00000000 00000000 00000000 00000000
 00000000 00000000 00000000 00000000 00000000 00000000 00000000 00000000
 hi: 00000000, lo: 00000000
Time=810000:
 Instr: 2008fffc
 Registers:
 00000000 00000000 00000000 00000000 00000000 00000000 00000000 00000000
 00000000 00000000 00000000 00000001 cafe2025 00000000 cafe2025 00000000
 00000000 00000000 00000000 00000000 00000000 00000000 00000000 00000000
 00000000 00000000 00000000 00000000 00000000 00000000 ffffffff 00000058
 Data:
 00000000 cafe2025 00000000 00000000 00000000 00000000 00000000 00000000
 00000000 00000000 00000000 00000000 00000000 00000000 00000000 00000000
 hi: 00000000, lo: 00000000
Time=830000:
 Instr: 20090400
 Registers:
 00000000 00000000 00000000 00000000 00000000 00000000 00000000 00000000
 fffffffc 00000000 00000000 00000001 cafe2025 00000000 cafe2025 00000000
 00000000 00000000 00000000 00000000 00000000 00000000 00000000 00000000
 00000000 00000000 00000000 00000000 00000000 00000000 ffffffff 00000058
 Data:
 00000000 cafe2025 00000000 00000000 00000000 00000000 00000000 00000000
 00000000 00000000 00000000 00000000 00000000 00000000 00000000 00000000
 hi: 00000000, lo: 00000000
Time=850000:
 Instr: 0128001a
 Registers:
 00000000 00000000 00000000 00000000 00000000 00000000 00000000 00000000
 fffffffc 00000400 00000000 00000001 cafe2025 00000000 cafe2025 00000000
 00000000 00000000 00000000 00000000 00000000 00000000 00000000 00000000
 00000000 00000000 00000000 00000000 00000000 00000000 ffffffff 00000058
 Data:
 00000000 cafe2025 00000000 00000000 00000000 00000000 00000000 00000000
 00000000 00000000 00000000 00000000 00000000 00000000 00000000 00000000
 hi: 00000000, lo: 00000000
Time=870000:
 Instr: 0189001a
 Registers:
 00000000 00000000 00000000 00000000 00000000 00000000 00000000 00000000
 fffffffc 00000400 00000000 00000001 cafe2025 00000000 cafe2025 00000000
 00000000 00000000 00000000 00000000 00000000 00000000 00000000 00000000
 00000000 00000000 00000000 00000000 00000000 00000000 ffffffff 00000058
 Data:
 00000000 cafe2025 00000000 00000000 00000000 00000000 00000000 00000000
 00000000 00000000 00000000 00000000 00000000 00000000 00000000 00000000
 hi: 00000000, lo: ffffff00
Time=890000:
 Instr: 03e00008
 Registers:
 00000000 00000000 00000000 00000000 00000000 00000000 00000000 00000000
 fffffffc 00000400 00000000 00000001 cafe2025 00000000 cafe2025 00000000
 00000000 00000000 00000000 00000000 00000000 00000000 00000000 00000000
 00000000 00000000 00000000 00000000 00000000 00000000 ffffffff 00000058
 Data:
 00000000 cafe2025 00000000 00000000 00000000 00000000 00000000 00000000
 00000000 00000000 00000000 00000000 00000000 00000000 00000000 00000000
 hi: fffffc25, lo: fff2bf89
Time=910000:
 Instr: 0800001c
 Registers:
 00000000 00000000 00000000 00000000 00000000 00000000 00000000 00000000
 fffffffc 00000400 00000000 00000001 cafe2025 00000000 cafe2025 00000000
 00000000 00000000 00000000 00000000 00000000 00000000 00000000 00000000
 00000000 00000000 00000000 00000000 00000000 00000000 ffffffff 00000058
 Data:
 00000000 cafe2025 00000000 00000000 00000000 00000000 00000000 00000000
 00000000 00000000 00000000 00000000 00000000 00000000 00000000 00000000
 hi: fffffc25, lo: fff2bf89
Time=930000:
 Instr: 00000000
 Registers:
 00000000 00000000 00000000 00000000 00000000 00000000 00000000 00000000
 fffffffc 00000400 00000000 00000001 cafe2025 00000000 cafe2025 00000000
 00000000 00000000 00000000 00000000 00000000 00000000 00000000 00000000
 00000000 00000000 00000000 00000000 00000000 00000000 ffffffff 00000058
 Data:
 00000000 cafe2025 00000000 00000000 00000000 00000000 00000000 00000000
 00000000 00000000 00000000 00000000 00000000 00000000 00000000 00000000
 hi: fffffc25, lo: fff2bf89
