temp_MIPS.sim/sim_1/behav/xsim/simulate.log
Vivado Simulator 2018.2
Time resolution is 1 ps
Time=0:
 Instr: 20080005
 Registers:
 00000000 00000000 00000000 00000000 00000000 00000000 00000000 00000000
 00000000 00000000 00000000 00000000 00000000 00000000 00000000 00000000
 00000000 00000000 00000000 00000000 00000000 00000000 00000000 00000000
 00000000 00000000 00000000 00000000 00000000 00000000 00000000 00000000
 Data:
 00000000 00000000 00000000 00000000 00000000 00000000 00000000 00000000
 00000000 00000000 00000000 00000000 00000000 00000000 00000000 00000000
Time=10000:
 Instr: 20090001
 Registers:
 00000000 00000000 00000000 00000000 00000000 00000000 00000000 00000000
 00000005 00000000 00000000 00000000 00000000 00000000 00000000 00000000
 00000000 00000000 00000000 00000000 00000000 00000000 00000000 00000000
 00000000 00000000 00000000 00000000 00000000 00000000 00000000 00000000
 Data:
 00000000 00000000 00000000 00000000 00000000 00000000 00000000 00000000
 00000000 00000000 00000000 00000000 00000000 00000000 00000000 00000000
Time=30000:
 Instr: 01094022
 Registers:
 00000000 00000000 00000000 00000000 00000000 00000000 00000000 00000000
 00000005 00000001 00000000 00000000 00000000 00000000 00000000 00000000
 00000000 00000000 00000000 00000000 00000000 00000000 00000000 00000000
 00000000 00000000 00000000 00000000 00000000 00000000 00000000 00000000
 Data:
 00000000 00000000 00000000 00000000 00000000 00000000 00000000 00000000
 00000000 00000000 00000000 00000000 00000000 00000000 00000000 00000000
Time=50000:
 Instr: 01485020
 Registers:
 00000000 00000000 00000000 00000000 00000000 00000000 00000000 00000000
 00000004 00000001 00000000 00000000 00000000 00000000 00000000 00000000
 00000000 00000000 00000000 00000000 00000000 00000000 00000000 00000000
 00000000 00000000 00000000 00000000 00000000 00000000 00000000 00000000
 Data:
 00000000 00000000 00000000 00000000 00000000 00000000 00000000 00000000
 00000000 00000000 00000000 00000000 00000000 00000000 00000000 00000000
Time=70000:
 Instr: 1509fffd
 Registers:
 00000000 00000000 00000000 00000000 00000000 00000000 00000000 00000000
 00000004 00000001 00000004 00000000 00000000 00000000 00000000 00000000
 00000000 00000000 00000000 00000000 00000000 00000000 00000000 00000000
 00000000 00000000 00000000 00000000 00000000 00000000 00000000 00000000
 Data:
 00000000 00000000 00000000 00000000 00000000 00000000 00000000 00000000
 00000000 00000000 00000000 00000000 00000000 00000000 00000000 00000000
Time=90000:
 Instr: 01094022
 Registers:
 00000000 00000000 00000000 00000000 00000000 00000000 00000000 00000000
 00000004 00000001 00000004 00000000 00000000 00000000 00000000 00000000
 00000000 00000000 00000000 00000000 00000000 00000000 00000000 00000000
 00000000 00000000 00000000 00000000 00000000 00000000 00000000 00000000
 Data:
 00000000 00000000 00000000 00000000 00000000 00000000 00000000 00000000
 00000000 00000000 00000000 00000000 00000000 00000000 00000000 00000000
Time=110000:
 Instr: 01485020
 Registers:
 00000000 00000000 00000000 00000000 00000000 00000000 00000000 00000000
 00000003 00000001 00000004 00000000 00000000 00000000 00000000 00000000
 00000000 00000000 00000000 00000000 00000000 00000000 00000000 00000000
 00000000 00000000 00000000 00000000 00000000 00000000 00000000 00000000
 Data:
 00000000 00000000 00000000 00000000 00000000 00000000 00000000 00000000
 00000000 00000000 00000000 00000000 00000000 00000000 00000000 00000000
Time=130000:
 Instr: 1509fffd
 Registers:
 00000000 00000000 00000000 00000000 00000000 00000000 00000000 00000000
 00000003 00000001 00000007 00000000 00000000 00000000 00000000 00000000
 00000000 00000000 00000000 00000000 00000000 00000000 00000000 00000000
 00000000 00000000 00000000 00000000 00000000 00000000 00000000 00000000
 Data:
 00000000 00000000 00000000 00000000 00000000 00000000 00000000 00000000
 00000000 00000000 00000000 00000000 00000000 00000000 00000000 00000000
Time=150000:
 Instr: 01094022
 Registers:
 00000000 00000000 00000000 00000000 00000000 00000000 00000000 00000000
 00000003 00000001 00000007 00000000 00000000 00000000 00000000 00000000
 00000000 00000000 00000000 00000000 00000000 00000000 00000000 00000000
 00000000 00000000 00000000 00000000 00000000 00000000 00000000 00000000
 Data:
 00000000 00000000 00000000 00000000 00000000 00000000 00000000 00000000
 00000000 00000000 00000000 00000000 00000000 00000000 00000000 00000000
Time=170000:
 Instr: 01485020
 Registers:
 00000000 00000000 00000000 00000000 00000000 00000000 00000000 00000000
 00000002 00000001 00000007 00000000 00000000 00000000 00000000 00000000
 00000000 00000000 00000000 00000000 00000000 00000000 00000000 00000000
 00000000 00000000 00000000 00000000 00000000 00000000 00000000 00000000
 Data:
 00000000 00000000 00000000 00000000 00000000 00000000 00000000 00000000
 00000000 00000000 00000000 00000000 00000000 00000000 00000000 00000000
Time=190000:
 Instr: 1509fffd
 Registers:
 00000000 00000000 00000000 00000000 00000000 00000000 00000000 00000000
 00000002 00000001 00000009 00000000 00000000 00000000 00000000 00000000
 00000000 00000000 00000000 00000000 00000000 00000000 00000000 00000000
 00000000 00000000 00000000 00000000 00000000 00000000 00000000 00000000
 Data:
 00000000 00000000 00000000 00000000 00000000 00000000 00000000 00000000
 00000000 00000000 00000000 00000000 00000000 00000000 00000000 00000000
Time=210000:
 Instr: 01094022
 Registers:
 00000000 00000000 00000000 00000000 00000000 00000000 00000000 00000000
 00000002 00000001 00000009 00000000 00000000 00000000 00000000 00000000
 00000000 00000000 00000000 00000000 00000000 00000000 00000000 00000000
 00000000 00000000 00000000 00000000 00000000 00000000 00000000 00000000
 Data:
 00000000 00000000 00000000 00000000 00000000 00000000 00000000 00000000
 00000000 00000000 00000000 00000000 00000000 00000000 00000000 00000000
Time=230000:
 Instr: 01485020
 Registers:
 00000000 00000000 00000000 00000000 00000000 00000000 00000000 00000000
 00000001 00000001 00000009 00000000 00000000 00000000 00000000 00000000
 00000000 00000000 00000000 00000000 00000000 00000000 00000000 00000000
 00000000 00000000 00000000 00000000 00000000 00000000 00000000 00000000
 Data:
 00000000 00000000 00000000 00000000 00000000 00000000 00000000 00000000
 00000000 00000000 00000000 00000000 00000000 00000000 00000000 00000000
Time=250000:
 Instr: 1509fffd
 Registers:
 00000000 00000000 00000000 00000000 00000000 00000000 00000000 00000000
 00000001 00000001 0000000a 00000000 00000000 00000000 00000000 00000000
 00000000 00000000 00000000 00000000 00000000 00000000 00000000 00000000
 00000000 00000000 00000000 00000000 00000000 00000000 00000000 00000000
 Data:
 00000000 00000000 00000000 00000000 00000000 00000000 00000000 00000000
 00000000 00000000 00000000 00000000 00000000 00000000 00000000 00000000
Time=270000:
 Instr: 00004820
 Registers:
 00000000 00000000 00000000 00000000 00000000 00000000 00000000 00000000
 00000001 00000001 0000000a 00000000 00000000 00000000 00000000 00000000
 00000000 00000000 00000000 00000000 00000000 00000000 00000000 00000000
 00000000 00000000 00000000 00000000 00000000 00000000 00000000 00000000
 Data:
 00000000 00000000 00000000 00000000 00000000 00000000 00000000 00000000
 00000000 00000000 00000000 00000000 00000000 00000000 00000000 00000000
Time=290000:
 Instr: 01095025
 Registers:
 00000000 00000000 00000000 00000000 00000000 00000000 00000000 00000000
 00000001 00000000 0000000a 00000000 00000000 00000000 00000000 00000000
 00000000 00000000 00000000 00000000 00000000 00000000 00000000 00000000
 00000000 00000000 00000000 00000000 00000000 00000000 00000000 00000000
 Data:
 00000000 00000000 00000000 00000000 00000000 00000000 00000000 00000000
 00000000 00000000 00000000 00000000 00000000 00000000 00000000 00000000
Time=310000:
 Instr: 3c0ecafe
 Registers:
 00000000 00000000 00000000 00000000 00000000 00000000 00000000 00000000
 00000001 00000000 00000001 00000000 00000000 00000000 00000000 00000000
 00000000 00000000 00000000 00000000 00000000 00000000 00000000 00000000
 00000000 00000000 00000000 00000000 00000000 00000000 00000000 00000000
 Data:
 00000000 00000000 00000000 00000000 00000000 00000000 00000000 00000000
 00000000 00000000 00000000 00000000 00000000 00000000 00000000 00000000
Time=330000:
 Instr: 35ce2025
 Registers:
 00000000 00000000 00000000 00000000 00000000 00000000 00000000 00000000
 00000001 00000000 00000001 00000000 00000000 00000000 cafe0000 00000000
 00000000 00000000 00000000 00000000 00000000 00000000 00000000 00000000
 00000000 00000000 00000000 00000000 00000000 00000000 00000000 00000000
 Data:
 00000000 00000000 00000000 00000000 00000000 00000000 00000000 00000000
 00000000 00000000 00000000 00000000 00000000 00000000 00000000 00000000
Time=350000:
 Instr: adae0004
 Registers:
 00000000 00000000 00000000 00000000 00000000 00000000 00000000 00000000
 00000001 00000000 00000001 00000000 00000000 00000000 cafe2025 00000000
 00000000 00000000 00000000 00000000 00000000 00000000 00000000 00000000
 00000000 00000000 00000000 00000000 00000000 00000000 00000000 00000000
 Data:
 00000000 00000000 00000000 00000000 00000000 00000000 00000000 00000000
 00000000 00000000 00000000 00000000 00000000 00000000 00000000 00000000
Time=370000:
 Instr: 8dac0004
 Registers:
 00000000 00000000 00000000 00000000 00000000 00000000 00000000 00000000
 00000001 00000000 00000001 00000000 00000000 00000000 cafe2025 00000000
 00000000 00000000 00000000 00000000 00000000 00000000 00000000 00000000
 00000000 00000000 00000000 00000000 00000000 00000000 00000000 00000000
 Data:
 00000000 cafe2025 00000000 00000000 00000000 00000000 00000000 00000000
 00000000 00000000 00000000 00000000 00000000 00000000 00000000 00000000
Time=390000:
 Instr: 00000000
 Registers:
 00000000 00000000 00000000 00000000 00000000 00000000 00000000 00000000
 00000001 00000000 00000001 00000000 cafe2025 00000000 cafe2025 00000000
 00000000 00000000 00000000 00000000 00000000 00000000 00000000 00000000
 00000000 00000000 00000000 00000000 00000000 00000000 00000000 00000000
 Data:
 00000000 cafe2025 00000000 00000000 00000000 00000000 00000000 00000000
 00000000 00000000 00000000 00000000 00000000 00000000 00000000 00000000
