temp_MIPS.sim/sim_1/behav/xsim/simulate.log
Vivado Simulator 2018.2
Time resolution is 1 ps
Time=0:
 Instr: 20080005
 Registers:
 00000000 00000000 00000000 00000000 00000000 00000000 00000000 00000000
 00000000 00000000 00000000 00000000 00000000 00000000 00000000 00000000
 00000000 00000000 00000000 00000000 00000000 00000000 00000000 00000000
 00000000 00000000 00000000 00000000 00000000 00000000 00000000 00000000
 Data:
 00000000 00000000 00000000 00000000 00000000 00000000 00000000 00000000
 00000000 00000000 00000000 00000000 00000000 00000000 00000000 00000000
 hi: 00000000, lo: 00000000
Time=10000:
 Instr: 20090001
 Registers:
 00000000 00000000 00000000 00000000 00000000 00000000 00000000 00000000
 00000005 00000000 00000000 00000000 00000000 00000000 00000000 00000000
 00000000 00000000 00000000 00000000 00000000 00000000 00000000 00000000
 00000000 00000000 00000000 00000000 00000000 00000000 00000000 00000000
 Data:
 00000000 00000000 00000000 00000000 00000000 00000000 00000000 00000000
 00000000 00000000 00000000 00000000 00000000 00000000 00000000 00000000
 hi: 00000000, lo: 00000000
Time=30000:
 Instr: 01094022
 Registers:
 00000000 00000000 00000000 00000000 00000000 00000000 00000000 00000000
 00000005 00000001 00000000 00000000 00000000 00000000 00000000 00000000
 00000000 00000000 00000000 00000000 00000000 00000000 00000000 00000000
 00000000 00000000 00000000 00000000 00000000 00000000 00000000 00000000
 Data:
 00000000 00000000 00000000 00000000 00000000 00000000 00000000 00000000
 00000000 00000000 00000000 00000000 00000000 00000000 00000000 00000000
 hi: 00000000, lo: 00000000
Time=50000:
 Instr: 01485020
 Registers:
 00000000 00000000 00000000 00000000 00000000 00000000 00000000 00000000
 00000004 00000001 00000000 00000000 00000000 00000000 00000000 00000000
 00000000 00000000 00000000 00000000 00000000 00000000 00000000 00000000
 00000000 00000000 00000000 00000000 00000000 00000000 00000000 00000000
 Data:
 00000000 00000000 00000000 00000000 00000000 00000000 00000000 00000000
 00000000 00000000 00000000 00000000 00000000 00000000 00000000 00000000
 hi: 00000000, lo: 00000000
Time=70000:
 Instr: 0109582a
 Registers:
 00000000 00000000 00000000 00000000 00000000 00000000 00000000 00000000
 00000004 00000001 00000004 00000000 00000000 00000000 00000000 00000000
 00000000 00000000 00000000 00000000 00000000 00000000 00000000 00000000
 00000000 00000000 00000000 00000000 00000000 00000000 00000000 00000000
 Data:
 00000000 00000000 00000000 00000000 00000000 00000000 00000000 00000000
 00000000 00000000 00000000 00000000 00000000 00000000 00000000 00000000
 hi: 00000000, lo: 00000000
Time=90000:
 Instr: 11800001
 Registers:
 00000000 00000000 00000000 00000000 00000000 00000000 00000000 00000000
 00000004 00000001 00000004 00000000 00000000 00000000 00000000 00000000
 00000000 00000000 00000000 00000000 00000000 00000000 00000000 00000000
 00000000 00000000 00000000 00000000 00000000 00000000 00000000 00000000
 Data:
 00000000 00000000 00000000 00000000 00000000 00000000 00000000 00000000
 00000000 00000000 00000000 00000000 00000000 00000000 00000000 00000000
 hi: 00000000, lo: 00000000
Time=110000:
 Instr: 014b4824
 Registers:
 00000000 00000000 00000000 00000000 00000000 00000000 00000000 00000000
 00000004 00000001 00000004 00000000 00000000 00000000 00000000 00000000
 00000000 00000000 00000000 00000000 00000000 00000000 00000000 00000000
 00000000 00000000 00000000 00000000 00000000 00000000 00000000 00000000
 Data:
 00000000 00000000 00000000 00000000 00000000 00000000 00000000 00000000
 00000000 00000000 00000000 00000000 00000000 00000000 00000000 00000000
 hi: 00000000, lo: 00000000
Time=130000:
 Instr: 01095025
 Registers:
 00000000 00000000 00000000 00000000 00000000 00000000 00000000 00000000
 00000004 00000000 00000004 00000000 00000000 00000000 00000000 00000000
 00000000 00000000 00000000 00000000 00000000 00000000 00000000 00000000
 00000000 00000000 00000000 00000000 00000000 00000000 00000000 00000000
 Data:
 00000000 00000000 00000000 00000000 00000000 00000000 00000000 00000000
 00000000 00000000 00000000 00000000 00000000 00000000 00000000 00000000
 hi: 00000000, lo: 00000000
Time=150000:
 Instr: 3c0ecafe
 Registers:
 00000000 00000000 00000000 00000000 00000000 00000000 00000000 00000000
 00000004 00000000 00000004 00000000 00000000 00000000 00000000 00000000
 00000000 00000000 00000000 00000000 00000000 00000000 00000000 00000000
 00000000 00000000 00000000 00000000 00000000 00000000 00000000 00000000
 Data:
 00000000 00000000 00000000 00000000 00000000 00000000 00000000 00000000
 00000000 00000000 00000000 00000000 00000000 00000000 00000000 00000000
 hi: 00000000, lo: 00000000
Time=170000:
 Instr: 35ce2025
 Registers:
 00000000 00000000 00000000 00000000 00000000 00000000 00000000 00000000
 00000004 00000000 00000004 00000000 00000000 00000000 cafe0000 00000000
 00000000 00000000 00000000 00000000 00000000 00000000 00000000 00000000
 00000000 00000000 00000000 00000000 00000000 00000000 00000000 00000000
 Data:
 00000000 00000000 00000000 00000000 00000000 00000000 00000000 00000000
 00000000 00000000 00000000 00000000 00000000 00000000 00000000 00000000
 hi: 00000000, lo: 00000000
Time=190000:
 Instr: ac0e0004
 Registers:
 00000000 00000000 00000000 00000000 00000000 00000000 00000000 00000000
 00000004 00000000 00000004 00000000 00000000 00000000 cafe2025 00000000
 00000000 00000000 00000000 00000000 00000000 00000000 00000000 00000000
 00000000 00000000 00000000 00000000 00000000 00000000 00000000 00000000
 Data:
 00000000 00000000 00000000 00000000 00000000 00000000 00000000 00000000
 00000000 00000000 00000000 00000000 00000000 00000000 00000000 00000000
 hi: 00000000, lo: 00000000
Time=210000:
 Instr: 8c0c0004
 Registers:
 00000000 00000000 00000000 00000000 00000000 00000000 00000000 00000000
 00000004 00000000 00000004 00000000 00000000 00000000 cafe2025 00000000
 00000000 00000000 00000000 00000000 00000000 00000000 00000000 00000000
 00000000 00000000 00000000 00000000 00000000 00000000 00000000 00000000
 Data:
 00000000 cafe2025 00000000 00000000 00000000 00000000 00000000 00000000
 00000000 00000000 00000000 00000000 00000000 00000000 00000000 00000000
 hi: 00000000, lo: 00000000
Time=230000:
 Instr: 0109f027
 Registers:
 00000000 00000000 00000000 00000000 00000000 00000000 00000000 00000000
 00000004 00000000 00000004 00000000 cafe2025 00000000 cafe2025 00000000
 00000000 00000000 00000000 00000000 00000000 00000000 00000000 00000000
 00000000 00000000 00000000 00000000 00000000 00000000 00000000 00000000
 Data:
 00000000 cafe2025 00000000 00000000 00000000 00000000 00000000 00000000
 00000000 00000000 00000000 00000000 00000000 00000000 00000000 00000000
 hi: 00000000, lo: 00000000
Time=250000:
 Instr: 300a0003
 Registers:
 00000000 00000000 00000000 00000000 00000000 00000000 00000000 00000000
 00000004 00000000 00000004 00000000 cafe2025 00000000 cafe2025 00000000
 00000000 00000000 00000000 00000000 00000000 00000000 00000000 00000000
 00000000 00000000 00000000 00000000 00000000 00000000 fffffffb 00000000
 Data:
 00000000 cafe2025 00000000 00000000 00000000 00000000 00000000 00000000
 00000000 00000000 00000000 00000000 00000000 00000000 00000000 00000000
 hi: 00000000, lo: 00000000
Time=270000:
 Instr: 280b0004
 Registers:
 00000000 00000000 00000000 00000000 00000000 00000000 00000000 00000000
 00000004 00000000 00000000 00000000 cafe2025 00000000 cafe2025 00000000
 00000000 00000000 00000000 00000000 00000000 00000000 00000000 00000000
 00000000 00000000 00000000 00000000 00000000 00000000 fffffffb 00000000
 Data:
 00000000 cafe2025 00000000 00000000 00000000 00000000 00000000 00000000
 00000000 00000000 00000000 00000000 00000000 00000000 00000000 00000000
 hi: 00000000, lo: 00000000
Time=290000:
 Instr: 00084a00
 Registers:
 00000000 00000000 00000000 00000000 00000000 00000000 00000000 00000000
 00000004 00000000 00000000 00000001 cafe2025 00000000 cafe2025 00000000
 00000000 00000000 00000000 00000000 00000000 00000000 00000000 00000000
 00000000 00000000 00000000 00000000 00000000 00000000 fffffffb 00000000
 Data:
 00000000 cafe2025 00000000 00000000 00000000 00000000 00000000 00000000
 00000000 00000000 00000000 00000000 00000000 00000000 00000000 00000000
 hi: 00000000, lo: 00000000
Time=310000:
 Instr: 00095082
 Registers:
 00000000 00000000 00000000 00000000 00000000 00000000 00000000 00000000
 00000004 00000400 00000000 00000001 cafe2025 00000000 cafe2025 00000000
 00000000 00000000 00000000 00000000 00000000 00000000 00000000 00000000
 00000000 00000000 00000000 00000000 00000000 00000000 fffffffb 00000000
 Data:
 00000000 cafe2025 00000000 00000000 00000000 00000000 00000000 00000000
 00000000 00000000 00000000 00000000 00000000 00000000 00000000 00000000
 hi: 00000000, lo: 00000000
Time=330000:
 Instr: 010c0018
 Registers:
 00000000 00000000 00000000 00000000 00000000 00000000 00000000 00000000
 00000004 00000400 00000100 00000001 cafe2025 00000000 cafe2025 00000000
 00000000 00000000 00000000 00000000 00000000 00000000 00000000 00000000
 00000000 00000000 00000000 00000000 00000000 00000000 fffffffb 00000000
 Data:
 00000000 cafe2025 00000000 00000000 00000000 00000000 00000000 00000000
 00000000 00000000 00000000 00000000 00000000 00000000 00000000 00000000
 hi: 00000000, lo: 00000000
Time=350000:
 Instr: 00000810
 Registers:
 00000000 00000000 00000000 00000000 00000000 00000000 00000000 00000000
 00000004 00000400 00000100 00000001 cafe2025 00000000 cafe2025 00000000
 00000000 00000000 00000000 00000000 00000000 00000000 00000000 00000000
 00000000 00000000 00000000 00000000 00000000 00000000 fffffffb 00000000
 Data:
 00000000 cafe2025 00000000 00000000 00000000 00000000 00000000 00000000
 00000000 00000000 00000000 00000000 00000000 00000000 00000000 00000000
 hi: ffffffff, lo: 2bf88094
Time=370000:
 Instr: 00001012
 Registers:
 00000000 ffffffff 00000000 00000000 00000000 00000000 00000000 00000000
 00000004 00000400 00000100 00000001 cafe2025 00000000 cafe2025 00000000
 00000000 00000000 00000000 00000000 00000000 00000000 00000000 00000000
 00000000 00000000 00000000 00000000 00000000 00000000 fffffffb 00000000
 Data:
 00000000 cafe2025 00000000 00000000 00000000 00000000 00000000 00000000
 00000000 00000000 00000000 00000000 00000000 00000000 00000000 00000000
 hi: ffffffff, lo: 2bf88094
Time=390000:
 Instr: 0188001a
 Registers:
 00000000 ffffffff 2bf88094 00000000 00000000 00000000 00000000 00000000
 00000004 00000400 00000100 00000001 cafe2025 00000000 cafe2025 00000000
 00000000 00000000 00000000 00000000 00000000 00000000 00000000 00000000
 00000000 00000000 00000000 00000000 00000000 00000000 fffffffb 00000000
 Data:
 00000000 cafe2025 00000000 00000000 00000000 00000000 00000000 00000000
 00000000 00000000 00000000 00000000 00000000 00000000 00000000 00000000
 hi: ffffffff, lo: 2bf88094
Time=410000:
 Instr: 00000000
 Registers:
 00000000 ffffffff 2bf88094 00000000 00000000 00000000 00000000 00000000
 00000004 00000400 00000100 00000001 cafe2025 00000000 cafe2025 00000000
 00000000 00000000 00000000 00000000 00000000 00000000 00000000 00000000
 00000000 00000000 00000000 00000000 00000000 00000000 fffffffb 00000000
 Data:
 00000000 cafe2025 00000000 00000000 00000000 00000000 00000000 00000000
 00000000 00000000 00000000 00000000 00000000 00000000 00000000 00000000
 hi: fffffffd, lo: f2bf880a
$finish called at time : 510 ns : File "C:/Users/Admin/Documents/MIPS_single_cycle/temp_MIPS.srcs/sim_1/new/MIPS_temp_tb.v" Line 45
