temp_MIPS.sim/sim_1/behav/xsim/simulate.log
Vivado Simulator 2018.2
Time resolution is 1 ps
Time=0:
 Registers:
 00000000 00000000 00000000 00000000 00000000 00000000 00000000 00000000
 00000000 00000000 00000000 00000000 00000000 00000000 00000000 00000000
 00000000 00000000 00000000 00000000 00000000 00000000 00000000 00000000
 00000000 00000000 00000000 00000000 00000000 00000000 00000000 00000000
 Data:
 00000000 00000000 00000000 00000000 00000000 00000000 00000000 00000000
 00000000 00000000 00000000 00000000 00000000 00000000 00000000 00000000
Time=10000:
 Registers:
 00000000 00000000 00000000 00000000 00000000 00000000 00000000 00000000
 00000005 00000000 00000000 00000000 00000000 00000000 00000000 00000000
 00000000 00000000 00000000 00000000 00000000 00000000 00000000 00000000
 00000000 00000000 00000000 00000000 00000000 00000000 00000000 00000000
 Data:
 00000000 00000000 00000000 00000000 00000000 00000000 00000000 00000000
 00000000 00000000 00000000 00000000 00000000 00000000 00000000 00000000
Time=30000:
 Registers:
 00000000 00000000 00000000 00000000 00000000 00000000 00000000 00000000
 00000005 00000001 00000000 00000000 00000000 00000000 00000000 00000000
 00000000 00000000 00000000 00000000 00000000 00000000 00000000 00000000
 00000000 00000000 00000000 00000000 00000000 00000000 00000000 00000000
 Data:
 00000000 00000000 00000000 00000000 00000000 00000000 00000000 00000000
 00000000 00000000 00000000 00000000 00000000 00000000 00000000 00000000
Time=50000:
 Registers:
 00000000 00000000 00000000 00000000 00000000 00000000 00000000 00000000
 00000004 00000001 00000000 00000000 00000000 00000000 00000000 00000000
 00000000 00000000 00000000 00000000 00000000 00000000 00000000 00000000
 00000000 00000000 00000000 00000000 00000000 00000000 00000000 00000000
 Data:
 00000000 00000000 00000000 00000000 00000000 00000000 00000000 00000000
 00000000 00000000 00000000 00000000 00000000 00000000 00000000 00000000
Time=70000:
 Registers:
 00000000 00000000 00000000 00000000 00000000 00000000 00000000 00000000
 00000004 00000001 00000004 00000000 00000000 00000000 00000000 00000000
 00000000 00000000 00000000 00000000 00000000 00000000 00000000 00000000
 00000000 00000000 00000000 00000000 00000000 00000000 00000000 00000000
 Data:
 00000000 00000000 00000000 00000000 00000000 00000000 00000000 00000000
 00000000 00000000 00000000 00000000 00000000 00000000 00000000 00000000
Time=110000:
 Registers:
 00000000 00000000 00000000 00000000 00000000 00000000 00000000 00000000
 00000003 00000001 00000004 00000000 00000000 00000000 00000000 00000000
 00000000 00000000 00000000 00000000 00000000 00000000 00000000 00000000
 00000000 00000000 00000000 00000000 00000000 00000000 00000000 00000000
 Data:
 00000000 00000000 00000000 00000000 00000000 00000000 00000000 00000000
 00000000 00000000 00000000 00000000 00000000 00000000 00000000 00000000
Time=130000:
 Registers:
 00000000 00000000 00000000 00000000 00000000 00000000 00000000 00000000
 00000003 00000001 00000007 00000000 00000000 00000000 00000000 00000000
 00000000 00000000 00000000 00000000 00000000 00000000 00000000 00000000
 00000000 00000000 00000000 00000000 00000000 00000000 00000000 00000000
 Data:
 00000000 00000000 00000000 00000000 00000000 00000000 00000000 00000000
 00000000 00000000 00000000 00000000 00000000 00000000 00000000 00000000
Time=170000:
 Registers:
 00000000 00000000 00000000 00000000 00000000 00000000 00000000 00000000
 00000002 00000001 00000007 00000000 00000000 00000000 00000000 00000000
 00000000 00000000 00000000 00000000 00000000 00000000 00000000 00000000
 00000000 00000000 00000000 00000000 00000000 00000000 00000000 00000000
 Data:
 00000000 00000000 00000000 00000000 00000000 00000000 00000000 00000000
 00000000 00000000 00000000 00000000 00000000 00000000 00000000 00000000
Time=190000:
 Registers:
 00000000 00000000 00000000 00000000 00000000 00000000 00000000 00000000
 00000002 00000001 00000009 00000000 00000000 00000000 00000000 00000000
 00000000 00000000 00000000 00000000 00000000 00000000 00000000 00000000
 00000000 00000000 00000000 00000000 00000000 00000000 00000000 00000000
 Data:
 00000000 00000000 00000000 00000000 00000000 00000000 00000000 00000000
 00000000 00000000 00000000 00000000 00000000 00000000 00000000 00000000
Time=230000:
 Registers:
 00000000 00000000 00000000 00000000 00000000 00000000 00000000 00000000
 00000001 00000001 00000009 00000000 00000000 00000000 00000000 00000000
 00000000 00000000 00000000 00000000 00000000 00000000 00000000 00000000
 00000000 00000000 00000000 00000000 00000000 00000000 00000000 00000000
 Data:
 00000000 00000000 00000000 00000000 00000000 00000000 00000000 00000000
 00000000 00000000 00000000 00000000 00000000 00000000 00000000 00000000
Time=250000:
 Registers:
 00000000 00000000 00000000 00000000 00000000 00000000 00000000 00000000
 00000001 00000001 0000000a 00000000 00000000 00000000 00000000 00000000
 00000000 00000000 00000000 00000000 00000000 00000000 00000000 00000000
 00000000 00000000 00000000 00000000 00000000 00000000 00000000 00000000
 Data:
 00000000 00000000 00000000 00000000 00000000 00000000 00000000 00000000
 00000000 00000000 00000000 00000000 00000000 00000000 00000000 00000000
Time=290000:
 Registers:
 00000000 00000000 00000000 00000000 00000000 00000000 00000000 00000000
 00000001 00000000 0000000a 00000000 00000000 00000000 00000000 00000000
 00000000 00000000 00000000 00000000 00000000 00000000 00000000 00000000
 00000000 00000000 00000000 00000000 00000000 00000000 00000000 00000000
 Data:
 00000000 00000000 00000000 00000000 00000000 00000000 00000000 00000000
 00000000 00000000 00000000 00000000 00000000 00000000 00000000 00000000
Time=310000:
 Registers:
 00000000 00000000 00000000 00000000 00000000 00000000 00000000 00000000
 00000001 00000000 00000001 00000000 00000000 00000000 00000000 00000000
 00000000 00000000 00000000 00000000 00000000 00000000 00000000 00000000
 00000000 00000000 00000000 00000000 00000000 00000000 00000000 00000000
 Data:
 00000000 00000000 00000000 00000000 00000000 00000000 00000000 00000000
 00000000 00000000 00000000 00000000 00000000 00000000 00000000 00000000
Time=330000:
 Registers:
 00000000 00000000 00000000 00000000 00000000 00000000 00000000 00000000
 00000001 00000000 00000001 00000000 00000000 00000000 cafe0000 00000000
 00000000 00000000 00000000 00000000 00000000 00000000 00000000 00000000
 00000000 00000000 00000000 00000000 00000000 00000000 00000000 00000000
 Data:
 00000000 00000000 00000000 00000000 00000000 00000000 00000000 00000000
 00000000 00000000 00000000 00000000 00000000 00000000 00000000 00000000
Time=350000:
 Registers:
 00000000 00000000 00000000 00000000 00000000 00000000 00000000 00000000
 00000001 00000000 00000001 00000000 00000000 00000000 cafe2025 00000000
 00000000 00000000 00000000 00000000 00000000 00000000 00000000 00000000
 00000000 00000000 00000000 00000000 00000000 00000000 00000000 00000000
 Data:
 00000000 00000000 00000000 00000000 00000000 00000000 00000000 00000000
 00000000 00000000 00000000 00000000 00000000 00000000 00000000 00000000
Time=370000:
 Registers:
 00000000 00000000 00000000 00000000 00000000 00000000 00000000 00000000
 00000001 00000000 00000001 00000000 00000000 00000000 cafe2025 00000000
 00000000 00000000 00000000 00000000 00000000 00000000 00000000 00000000
 00000000 00000000 00000000 00000000 00000000 00000000 00000000 00000000
 Data:
 00000000 cafe2025 00000000 00000000 00000000 00000000 00000000 00000000
 00000000 00000000 00000000 00000000 00000000 00000000 00000000 00000000
Time=390000:
 Registers:
 00000000 00000000 00000000 00000000 00000000 00000000 00000000 00000000
 00000001 00000000 00000001 00000000 cafe2025 00000000 cafe2025 00000000
 00000000 00000000 00000000 00000000 00000000 00000000 00000000 00000000
 00000000 00000000 00000000 00000000 00000000 00000000 00000000 00000000
 Data:
 00000000 cafe2025 00000000 00000000 00000000 00000000 00000000 00000000
 00000000 00000000 00000000 00000000 00000000 00000000 00000000 00000000
Time=410000:
 Registers:
 00000000 00000000 00000000 00000000 00000000 00000000 00000000 00000000
 00000001 00000000 00000001 00000000 cafe2025 00000000 cafe2025 00000000
 00000000 ffff0000 00000000 00000000 00000000 00000000 00000000 00000000
 00000000 00000000 00000000 00000000 00000000 00000000 00000000 00000000
 Data:
 00000000 cafe2025 00000000 00000000 00000000 00000000 00000000 00000000
 00000000 00000000 00000000 00000000 00000000 00000000 00000000 00000000
Time=430000:
 Registers:
 00000000 00000000 00000000 00000000 00000000 00000000 00000000 00000000
 00000001 00000000 00000001 00000000 cafe2025 00000000 cafe2025 00000000
 00000000 ffffffff 00000000 00000000 00000000 00000000 00000000 00000000
 00000000 00000000 00000000 00000000 00000000 00000000 00000000 00000000
 Data:
 00000000 cafe2025 00000000 00000000 00000000 00000000 00000000 00000000
 00000000 00000000 00000000 00000000 00000000 00000000 00000000 00000000
Time=450000:
 Registers:
 00000000 00000000 00000000 00000000 00000000 00000000 00000000 00000000
 00000001 00000000 00000001 00000000 cafe2025 00000000 cafe2025 00000000
 00000000 ffffffff ffff0000 00000000 00000000 00000000 00000000 00000000
 00000000 00000000 00000000 00000000 00000000 00000000 00000000 00000000
 Data:
 00000000 cafe2025 00000000 00000000 00000000 00000000 00000000 00000000
 00000000 00000000 00000000 00000000 00000000 00000000 00000000 00000000
Time=470000:
 Registers:
 00000000 00000000 00000000 00000000 00000000 00000000 00000000 00000000
 00000001 00000000 00000001 00000000 cafe2025 00000000 cafe2025 00000000
 00000000 ffffffff ffffffff 00000000 00000000 00000000 00000000 00000000
 00000000 00000000 00000000 00000000 00000000 00000000 00000000 00000000
 Data:
 00000000 cafe2025 00000000 00000000 00000000 00000000 00000000 00000000
 00000000 00000000 00000000 00000000 00000000 00000000 00000000 00000000
Time=490000:
 Registers:
 00000000 00000000 00000000 00000000 00000000 00000000 00000000 00000000
 00000001 00000000 00000001 00000000 cafe2025 00000000 cafe2025 00000000
 fffffffe ffffffff ffffffff 00000000 00000000 00000000 00000000 00000000
 00000000 00000000 00000000 00000000 00000000 00000000 00000000 00000000
 Data:
 00000000 cafe2025 00000000 00000000 00000000 00000000 00000000 00000000
 00000000 00000000 00000000 00000000 00000000 00000000 00000000 00000000
Time=510000:
 Registers:
 00000000 00000000 00000000 00000000 00000000 00000000 00000000 00000000
 00000001 00000000 00000001 00000000 cafe2025 00000000 cafe2025 00000000
 fffffffe ffffffff ffffffff 00000000 00000000 00000000 00000000 00000000
 00000000 00000000 00000000 00000000 00000000 00000000 00000000 00000000
 Data:
 fffffffe cafe2025 00000000 00000000 00000000 00000000 00000000 00000000
 00000000 00000000 00000000 00000000 00000000 00000000 00000000 00000000
